{
	"titulo": "4 de Final",
	"data_partida": "14/11/2012",
	"time1": "Brazil",
	"time2": "Argentina",
	"ingressos_disponiveis":100,
	"ingressos":[
		{
			"acento": 90,
			"status": "Vendido",
			"cpfcliente":"354353535334",
			"data_venda":"89748189"
		}
	]
}